\relax 
\providecommand*{\memsetcounter}[2]{}
\@writefile{toc}{\contentsline {chapter}{\chapternumberline {1}}{1}\protected@file@percent }
\@writefile{toc}{\contentsline {section}{\numberline {1.1}}{1}\protected@file@percent }
\@writefile{toc}{\contentsline {subsection}{\numberline {1.1.1}}{1}\protected@file@percent }
\memsetcounter{lastsheet}{1}
\memsetcounter{lastpage}{1}
